@startuml
title トークン認証シーケンス2

activate クライアント

activate サーバー
クライアント -> サーバー: 管理セグメントにアクセス
サーバー --> クライアント: ページデータを返す
deactivate サーバー

activate クライアント
クライアント -> クライアント: 保存トークンの存在確認
alt トークンがある
    クライアント -> クライアント: トークンの有効期限確認
    alt 有効期限が切れている
        クライアント -> サーバー: トークン削除要求
        サーバー -> サーバー: トークンを削除
        サーバー --> クライアント: 削除結果
activate サーバー
        クライアント -> サーバー: 新規トークン要求
    else
        クライアント -> クライアント: 保存トークンの利用を開始
    end
else
    クライアント -> サーバー: 新規トークン要求
end
deactivate クライアント
deactivate クライアント

|||
activate サーバー
サーバー -> サーバー: 認証済みか確認
サーバー -> サーバー: トークン作成
サーバー --> クライアント: トークンを返す
activate クライアント
deactivate サーバー
|||
|||
クライアント -> サーバー: FIDO要求を投げる

activate サーバー
サーバー -> サーバー: 要求内容を元にクレデンシャルを作成
サーバー -> サーバー: 一時情報をキャッシュに保存
サーバー -> クライアント: クレデンシャルを返す
activate クライアント
クライアント -> クライアント: クレデンシャル検証
クライアント -> クライアント: FIDO認証開始
クライアント -> クライアント: クライアントクレデンシャルを作成
クライアント -> サーバー: クライアントクレデンシャルを投げる
deactivate クライアント
サーバー -> サーバー: 一次情報の検証
サーバー -> サーバー: クレデンシャルの検証
サーバー -> サーバー: クライアントクレデンシャルを保存
サーバー -> クライアント: 認証結果を返す
deactivate サーバー
deactivate クライアント
@enduml